# 12 vertices, 8 faces
v -1 3.4565 5
v -1 5.48151 5
v 1 2.60782 5
v 1 6.51085 5
v 0.622183 2.6737 5
v -0.52021 3.52717 4.00886
v 0.802045 6.51318 5
v 1 6.40554 4.88075
v 1 3.94727 3.55414
v -1 3.87147 4.13114
v 1 3.55058 3.5718
v -1 3.71935 4.13791
f 1 5 3 4 7 2
f 3 11 9 8 4
f 1 2 10 12
f 11 6 12 10 9
f 3 5 6 11
f 8 7 4
f 12 6 5 1
f 2 7 8 9 10
