# 10 vertices, 7 faces
v 1 7.5 -5
v -1 7.5 -5
v -1 7.5 -1.39034
v 1 7.5 -1.82971
v -1 4.21603 -5
v 1 5.84797 -5
v 1 5.68502 -1.61597
v 0.615211 5.36516 -1.49377
v -1 4.11549 -2.91208
v -1 5.4762 -1.15201
f 1 2 3 4
f 1 6 5 2
f 1 4 7 6
f 2 5 9 10 3
f 5 6 7 8 9
f 10 8 7 4 3
f 9 8 10
