# 10 vertices, 7 faces
v -1 6.89523 5
v -1 5.48151 5
v 0.802045 6.51318 5
v 1 6.40554 4.88075
v 1 4.18539 0.849276
v -0.991661 4.22211 0.149207
v 1 3.94727 3.55414
v -1 3.87147 4.13114
v -1 4.22406 0.149539
v -1 4.22189 0.15053
f 1 2 3
f 4 7 5
f 1 9 10 8 2
f 1 3 4 5 6 9
f 8 7 4 3 2
f 7 8 10 6 5
f 9 6 10
