# 10 vertices, 7 faces
v -1 -4.62098 5
v -1 -5.02898 5
v -0.362209 -4.88252 5
v 1 -4.80688 4.41836
v 1 -4.86063 1.60454
v -1 -4.18955 1.18778
v 1 -5.6337 2.39072
v -1 -5.88177 2.90869
v 1 -2.30008 2.11942
v -1 -1.13403 1.80219
f 1 2 3
f 4 7 5 9
f 1 10 6 8 2
f 7 8 6 5
f 5 6 10 9
f 1 3 4 9 10
f 8 7 4 3 2
